Endpoint Body is :https://reqres.in/api/users

Request Body is :{
    "name": "morphius",
    "job": "leader"
}

Response Body is :{"name":"morphius","job":"leader","id":"391","createdAt":"2023-12-30T06:52:17.968Z"}