Endpoint Body is :{
    "name": "sujata",
    "job": "QA"
}

Request Body is :https://reqres.in/api/users/2

Response Body is :{"name":"sujata","job":"QA","id":"905","createdAt":"2024-01-15T13:18:37.751Z"}